{
	"format_version": "1.8.0",
	"animations": {
		"animation.porygonz.ground_idle": {
			"loop": true,
			"bones": {
				"tail": {
					"rotation": [-30, 0, 0]
				},
				"leftarm": {
					"rotation": [15, -15, -15]
				},
				"rightarm": {
					"rotation": [15, 15, 15]
				}
			}
		},
		"animation.porygonz.blink": {
			"animation_length": 0.1667,
			"bones": {
				"eyelid_right": {
					"position": {
						"0.0": [-0.1, 0, 0],
						"0.125": [-0.1, 0, 0],
						"0.1667": [0, 0, 0]
					}
				},
				"eyelid_left": {
					"position": {
						"0.0": [0.1, 0, 0],
						"0.125": [0.1, 0, 0],
						"0.1667": [0, 0, 0]
					}
				}
			}
		}
	}
}