{
  "name": "Clauncher",
  "nationalPokedexNumber": 692,
  "primaryType": "water",
  "abilities": [
    "megalauncher"
  ],
  "baseStats": {
    "hp": 50,
    "attack": 53,
    "defence": 62,
    "special_attack": 58,
    "special_defence": 63,
    "speed": 44
  },
  "catchRate": 225,
  "maleRatio": 0.5,
  "shoulderMountable": false,
  "baseExperienceYield": 66,
  "experienceGroup": "slow",
  "eggCycles": 15,
  "eggGroups": [
    "water_1",
    "water_3"
  ],
  "moves": [
    "1:splash",
    "1:watergun",
    "5:visegrip",
    "7:watersport",
    "10:flail",
    "12:bubble",
    "15:aquajet",
    "20:smackdown",
    "25:honeclaws",
    "30:waterpulse",
    "35:swordsdance",
    "40:aurasphere",
    "45:bounce",
    "50:muddywater",
    "55:crabhammer",
    "egg:aquatail",
    "egg:bubblebeam",
    "egg:entrainment",
    "tm:attract",
    "tm:aurasphere",
    "tm:blizzard",
    "tm:chillingwater",
    "tm:confide",
    "tm:cut",
    "tm:darkpulse",
    "tm:dive",
    "tm:doubleteam",
    "tm:dragonpulse",
    "tm:endure",
    "tm:facade",
    "tm:flashcannon",
    "tm:frustration",
    "tm:helpinghand",
    "tm:hiddenpower",
    "tm:hydropump",
    "tm:icebeam",
    "tm:icywind",
    "tm:irontail",
    "tm:liquidation",
    "tm:mudshot",
    "tm:mudslap",
    "tm:pounce",
    "tm:protect",
    "tm:raindance",
    "tm:rest",
    "tm:return",
    "tm:rockslide",
    "tm:round",
    "tm:scald",
    "tm:secretpower",
    "tm:sleeptalk",
    "tm:sludgebomb",
    "tm:sludgewave",
    "tm:snore",
    "tm:substitute",
    "tm:surf",
    "tm:swagger",
    "tm:swordsdance",
    "tm:takedown",
    "tm:terablast",
    "tm:thief",
    "tm:toxic",
    "tm:uturn",
    "tm:venoshock",
    "tm:waterfall",
    "tm:waterpulse",
    "tutor:flipturn",
    "tutor:terrainpulse"
  ],
  "labels": [
    "gen6"
  ],
  "pokedex": [
    "cobblemon.species.clauncher.desc"
  ],
  "evolutions": [
    {
      "id": "clauncher_clawitzer",
      "variant": "level_up",
      "result": "clawitzer",
      "consumeHeldItem": false,
      "learnableMoves": [],
      "requirements": [
        {
          "variant": "level",
          "minLevel": 37
        }
      ]
    }
  ],
  "baseScale": 1,
  "hitbox": {
    "width": 1,
    "height": 1,
    "fixed": false
  },
  "baseFriendship": 50,
  "evYield": {
    "hp": 0,
    "attack": 0,
    "defence": 0,
    "special_attack": 1,
    "special_defence": 0,
    "speed": 0
  },
  "height": 5,
  "weight": 83,
  "aspects": [],
  "cannotDynamax": false
}