{
  "name": "Florges",
  "nationalPokedexNumber": 671,
  "primaryType": "fairy",
  "abilities": [
    "flowerveil",
    "h:symbiosis"
  ],
  "baseStats": {
    "hp": 78,
    "attack": 65,
    "defence": 68,
    "special_attack": 112,
    "special_defence": 154,
    "speed": 75
  },
  "catchRate": 45,
  "maleRatio": 0,
  "shoulderMountable": false,
  "baseExperienceYield": 248,
  "experienceGroup": "medium_fast",
  "eggCycles": 20,
  "eggGroups": [
    "fairy"
  ],
  "moves": [
    "1:aromatherapy",
    "1:disarmingvoice",
    "1:flowershield",
    "1:grassknot",
    "1:grassyterrain",
    "1:luckychant",
    "1:magicalleaf",
    "1:mistyterrain",
    "1:petalblizzard",
    "1:petaldance",
    "1:safeguard",
    "1:solarbeam",
    "1:synthesis",
    "1:wish",
    "5:moonblast",
    "tm:attract",
    "tm:batonpass",
    "tm:calmmind",
    "tm:charm",
    "tm:confide",
    "tm:dazzlinggleam",
    "tm:disarmingvoice",
    "tm:doubleteam",
    "tm:drainingkiss",
    "tm:echoedvoice",
    "tm:endure",
    "tm:energyball",
    "tm:facade",
    "tm:flash",
    "tm:frustration",
    "tm:gigadrain",
    "tm:gigaimpact",
    "tm:grassknot",
    "tm:grassyterrain",
    "tm:helpinghand",
    "tm:hiddenpower",
    "tm:hyperbeam",
    "tm:lightscreen",
    "tm:magicalleaf",
    "tm:metronome",
    "tm:mistyterrain",
    "tm:naturepower",
    "tm:pollenpuff",
    "tm:protect",
    "tm:psychic",
    "tm:raindance",
    "tm:rest",
    "tm:return",
    "tm:round",
    "tm:secretpower",
    "tm:seedbomb",
    "tm:skillswap",
    "tm:sleeptalk",
    "tm:solarbeam",
    "tm:storedpower",
    "tm:substitute",
    "tm:sunnyday",
    "tm:swagger",
    "tm:swift",
    "tm:terablast",
    "tm:toxic",
    "tm:trailblaze",
    "tm:trick",
    "tutor:afteryou",
    "tutor:allyswitch",
    "tutor:covet",
    "tutor:defog",
    "tutor:endeavor",
    "tutor:healbell",
    "tutor:magiccoat",
    "tutor:snore",
    "tutor:worryseed"
  ],
  "labels": [
    "gen6"
  ],
  "pokedex": [
    "cobblemon.species.florges.desc"
  ],
  "preEvolution": "floette",
  "evolutions": [],
  "baseScale": 1,
  "hitbox": {
    "width": 1,
    "height": 1,
    "fixed": false
  },
  "baseFriendship": 70,
  "evYield": {
    "hp": 0,
    "attack": 0,
    "defence": 0,
    "special_attack": 0,
    "special_defence": 3,
    "speed": 0
  },
  "height": 11,
  "weight": 100,
  "aspects": [],
  "cannotDynamax": false
}