{
  "name": "Ambipom",
  "nationalPokedexNumber": 424,
  "primaryType": "normal",
  "abilities": [
    "technician",
    "pickup",
    "h:skilllink"
  ],
  "baseStats": {
    "hp": 75,
    "attack": 100,
    "defence": 66,
    "special_attack": 60,
    "special_defence": 66,
    "speed": 115
  },
  "catchRate": 45,
  "maleRatio": 0.5,
  "shoulderMountable": false,
  "baseExperienceYield": 169,
  "experienceGroup": "fast",
  "eggCycles": 20,
  "eggGroups": [
    "field"
  ],
  "moves": [
    "1:astonish",
    "1:dualchop",
    "1:sandattack",
    "1:scratch",
    "1:tailwhip",
    "11:batonpass",
    "15:tickle",
    "18:furyswipes",
    "22:swift",
    "25:screech",
    "29:agility",
    "32:doublehit",
    "36:fling",
    "39:nastyplot",
    "43:lastresort",
    "tm:acrobatics",
    "tm:aerialace",
    "tm:attract",
    "tm:brickbreak",
    "tm:captivate",
    "tm:confide",
    "tm:cut",
    "tm:dig",
    "tm:doubleteam",
    "tm:dreameater",
    "tm:endure",
    "tm:facade",
    "tm:fling",
    "tm:frustration",
    "tm:gigaimpact",
    "tm:grassknot",
    "tm:hiddenpower",
    "tm:honeclaws",
    "tm:hyperbeam",
    "tm:lowsweep",
    "tm:naturalgift",
    "tm:payback",
    "tm:poweruppunch",
    "tm:protect",
    "tm:raindance",
    "tm:rest",
    "tm:retaliate",
    "tm:return",
    "tm:rocksmash",
    "tm:round",
    "tm:secretpower",
    "tm:shadowball",
    "tm:shadowclaw",
    "tm:sleeptalk",
    "tm:solarbeam",
    "tm:strength",
    "tm:substitute",
    "tm:sunnyday",
    "tm:swagger",
    "tm:taunt",
    "tm:thief",
    "tm:thunder",
    "tm:thunderbolt",
    "tm:thunderwave",
    "tm:toxic",
    "tm:uturn",
    "tm:workup",
    "tutor:bounce",
    "tutor:covet",
    "tutor:firepunch",
    "tutor:focuspunch",
    "tutor:foulplay",
    "tutor:furycutter",
    "tutor:gunkshot",
    "tutor:headbutt",
    "tutor:icepunch",
    "tutor:irontail",
    "tutor:knockoff",
    "tutor:laserfocus",
    "tutor:lastresort",
    "tutor:lowkick",
    "tutor:mudslap",
    "tutor:roleplay",
    "tutor:seedbomb",
    "tutor:shockwave",
    "tutor:snatch",
    "tutor:snore",
    "tutor:spite",
    "tutor:thunderpunch",
    "tutor:uproar",
    "tutor:waterpulse"
  ],
  "labels": [
    "gen4"
  ],
  "pokedex": [
    "cobblemon.species.ambipom.desc"
  ],
  "preEvolution": "aipom",
  "evolutions": [],
  "baseScale": 1,
  "hitbox": {
    "width": 1,
    "height": 1,
    "fixed": false
  },
  "baseFriendship": 100,
  "evYield": {
    "hp": 0,
    "attack": 0,
    "defence": 0,
    "special_attack": 0,
    "special_defence": 0,
    "speed": 2
  },
  "height": 12,
  "weight": 203,
  "aspects": [],
  "cannotDynamax": false
}