{
  "name": "Luxio",
  "nationalPokedexNumber": 404,
  "primaryType": "electric",
  "abilities": [
    "rivalry",
    "intimidate",
    "h:guts"
  ],
  "baseStats": {
    "hp": 60,
    "attack": 85,
    "defence": 49,
    "special_attack": 60,
    "special_defence": 49,
    "speed": 60
  },
  "catchRate": 120,
  "maleRatio": 0.5,
  "shoulderMountable": false,
  "baseExperienceYield": 127,
  "experienceGroup": "medium_slow",
  "eggCycles": 20,
  "eggGroups": [
    "field"
  ],
  "moves": [
    "1:charge",
    "1:leer",
    "1:tackle",
    "1:thundershock",
    "12:bite",
    "18:spark",
    "24:roar",
    "31:voltswitch",
    "36:scaryface",
    "42:thunderwave",
    "48:crunch",
    "54:discharge",
    "60:swagger",
    "68:wildcharge",
    "tm:attract",
    "tm:captivate",
    "tm:chargebeam",
    "tm:confide",
    "tm:confuseray",
    "tm:crunch",
    "tm:doubleteam",
    "tm:eerieimpulse",
    "tm:electricterrain",
    "tm:electroball",
    "tm:endure",
    "tm:facade",
    "tm:faketears",
    "tm:firefang",
    "tm:flash",
    "tm:frustration",
    "tm:helpinghand",
    "tm:hiddenpower",
    "tm:icefang",
    "tm:irontail",
    "tm:lightscreen",
    "tm:naturalgift",
    "tm:playrough",
    "tm:protect",
    "tm:psychicfangs",
    "tm:raindance",
    "tm:rest",
    "tm:return",
    "tm:round",
    "tm:scaryface",
    "tm:secretpower",
    "tm:sleeptalk",
    "tm:snarl",
    "tm:snore",
    "tm:strength",
    "tm:substitute",
    "tm:sunnyday",
    "tm:swift",
    "tm:takedown",
    "tm:terablast",
    "tm:thief",
    "tm:thunder",
    "tm:thunderbolt",
    "tm:thunderfang",
    "tm:thunderwave",
    "tm:toxic",
    "tm:trailblaze",
    "tm:voltswitch",
    "tm:wildcharge",
    "tutor:furycutter",
    "tutor:headbutt",
    "tutor:magnetrise",
    "tutor:mudslap",
    "tutor:risingvoltage",
    "tutor:shockwave",
    "tutor:signalbeam"
  ],
  "labels": [
    "gen4"
  ],
  "pokedex": [
    "cobblemon.species.luxio.desc"
  ],
  "preEvolution": "shinx",
  "evolutions": [
    {
      "id": "luxio_luxray",
      "variant": "level_up",
      "result": "luxray",
      "consumeHeldItem": false,
      "learnableMoves": [],
      "requirements": [
        {
          "variant": "level",
          "minLevel": 30
        }
      ]
    }
  ],
  "baseScale": 1,
  "hitbox": {
    "width": 1,
    "height": 1,
    "fixed": false
  },
  "baseFriendship": 100,
  "evYield": {
    "hp": 0,
    "attack": 2,
    "defence": 0,
    "special_attack": 0,
    "special_defence": 0,
    "speed": 0
  },
  "height": 9,
  "weight": 305,
  "aspects": [],
  "cannotDynamax": false
}