{
	"format_version": "1.8.0",
	"animations": {
		"animation.infernape.idle": {
			"loop": true,
			"bones": {
				"infernape": {
					"position": [0, -7.35, 0]
				},
				"torso": {
					"rotation": [7.5, 0, 0]
				},
				"torso_ruff_back": {
					"rotation": [5, 0, 0]
				},
				"torso_ruff_back2": {
					"rotation": [17.5, 0, 0]
				},
				"chest": {
					"rotation": [7.5, 0, 0]
				},
				"neck": {
					"rotation": [27.5, 0, 0]
				},
				"head": {
					"rotation": [-32.5, 0, 0]
				},
				"fire": {
					"rotation": [7.5, 0, 0]
				},
				"fire2": {
					"rotation": [-7.5, 0, 0]
				},
				"fire3": {
					"rotation": [-15, 0, 0]
				},
				"fire4": {
					"rotation": [17.5, 0, 0]
				},
				"fire5": {
					"rotation": [-12.5, 0, 0]
				},
				"fire6": {
					"rotation": [20, 0, 0]
				},
				"arm_right": {
					"rotation": [0.43688, 4.98093, -34.981]
				},
				"arm_right2": {
					"rotation": [0, -52.5, 0]
				},
				"finger_right_thumb": {
					"rotation": [0.32902, -7.49282, -27.52154]
				},
				"finger_right_thumb2": {
					"rotation": [0, 12.5, 0]
				},
				"finger_right_index": {
					"rotation": [0, 0, -10]
				},
				"finger_right_index2": {
					"rotation": [0, 0, -25]
				},
				"finger_right_middle": {
					"rotation": [0, 0, -5]
				},
				"finger_right_middle2": {
					"rotation": [0, 0, -17.5]
				},
				"finger_right_ring": {
					"rotation": [0, 0, -5]
				},
				"finger_right_ring2": {
					"rotation": [0, 0, -20]
				},
				"finger_right_pinkie": {
					"rotation": [0, 0, -7.5]
				},
				"finger_right_pinkie2": {
					"rotation": [0, 0, -25]
				},
				"arm_left": {
					"rotation": [0.43688, -4.98093, 34.981]
				},
				"arm_left2": {
					"rotation": [0, 52.5, 0]
				},
				"finger_left_thumb": {
					"rotation": [0, 0, 15]
				},
				"finger_left_thumb2": {
					"rotation": [0, -20, 0]
				},
				"finger_left_index": {
					"rotation": [0, 0, 10]
				},
				"finger_left_index2": {
					"rotation": [0, 0, 22.5]
				},
				"finger_left_middle": {
					"rotation": [0, 0, 5]
				},
				"finger_left_middle2": {
					"rotation": [0, 0, 22.5]
				},
				"finger_left_ring": {
					"rotation": [0, 0, 5]
				},
				"finger_left_ring2": {
					"rotation": [0, 0, 17.5]
				},
				"finger_left_pinkie": {
					"rotation": [0, 0, 10]
				},
				"finger_left_pinkie2": {
					"rotation": [0, 0, 22.5]
				},
				"tail": {
					"rotation": [-42.11228, 4.22051, -3.77632]
				},
				"tail2": {
					"rotation": [32.5, 0, 0]
				},
				"tail3": {
					"rotation": [32.5, 0, 0]
				},
				"tail4": {
					"rotation": [25, 0, 0]
				},
				"tail5": {
					"rotation": [-14.96706, 0.17728, 0.35984]
				},
				"leg_right": {
					"rotation": [-67.5, 65, -2.5]
				},
				"leg_right2": {
					"rotation": [62.5, 0, 0]
				},
				"foot_right": {
					"rotation": [7.5, 0, 0]
				},
				"toes_right": {
					"rotation": [-5, 0, 0]
				},
				"leg_left": {
					"rotation": [-67.5, -65, 2.5]
				},
				"leg_left2": {
					"rotation": [62.5, 0, 0]
				},
				"foot_left": {
					"rotation": [7.5, 0, 0]
				},
				"toes_left": {
					"rotation": [-5, 0, 0]
				}
			}
		},
		"animation.infernape.blink": {
			"animation_length": 0.1667,
			"bones": {
				"eyelid_right": {
					"position": {
						"0.0": [0, 0, -0.1],
						"0.12": [0, 0, -0.1],
						"0.16": [0, 0, 0]
					}
				},
				"eyelid_left": {
					"position": {
						"0.0": [0, 0, -0.1],
						"0.12": [0, 0, -0.1],
						"0.16": [0, 0, 0]
					}
				}
			}
		}
	}
}