{
  "species": "cobblemon:brionne",
  "order": 0,
  "variations": [
    {
      "aspects": [],
      "poser": "cobblemon:brionne",
      "model": "cobblemon:brionne.geo",
      "texture": "cobblemon:textures/pokemon/0729_brionne/brionne.png",
      "layers": []
    },
    {
      "aspects": []
    }
  ]
}