{
  "species": "cobblemon:spiritomb",
  "order": 0,
  "variations": [
    {
      "aspects": [],
      "poser": "cobblemon:spiritomb",
      "model": "cobblemon:spiritomb.geo",
      "texture": "cobblemon:textures/pokemon/0442_spiritomb/spiritomb.png",
      "layers": []
    },
    {
      "aspects": [ "shiny" ],
      "texture": "cobblemon:textures/pokemon/0442_spiritomb/spiritomb_shiny.png"
    }
  ]
}