{
  "name": "Barraskewda",
  "nationalPokedexNumber": 847,
  "primaryType": "water",
  "abilities": [
    "swiftswim",
    "h:propellertail"
  ],
  "baseStats": {
    "hp": 61,
    "attack": 123,
    "defence": 60,
    "special_attack": 60,
    "special_defence": 50,
    "speed": 136
  },
  "catchRate": 60,
  "maleRatio": 0.5,
  "shoulderMountable": false,
  "baseExperienceYield": 172,
  "experienceGroup": "slow",
  "eggCycles": 20,
  "eggGroups": [
    "water_2"
  ],
  "moves": [
    "1:aquajet",
    "1:bite",
    "1:furyattack",
    "1:peck",
    "1:throatchop",
    "18:agility",
    "24:dive",
    "32:focusenergy",
    "32:laserfocus",
    "40:crunch",
    "48:liquidation",
    "56:doubleedge",
    "tm:agility",
    "tm:assurance",
    "tm:attract",
    "tm:blizzard",
    "tm:bounce",
    "tm:brickbreak",
    "tm:chillingwater",
    "tm:closecombat",
    "tm:crunch",
    "tm:drillrun",
    "tm:endure",
    "tm:facade",
    "tm:gigaimpact",
    "tm:hydropump",
    "tm:hyperbeam",
    "tm:icebeam",
    "tm:icefang",
    "tm:liquidation",
    "tm:poisonjab",
    "tm:protect",
    "tm:psychicfangs",
    "tm:raindance",
    "tm:rest",
    "tm:round",
    "tm:scald",
    "tm:scaryface",
    "tm:sleeptalk",
    "tm:snore",
    "tm:substitute",
    "tm:surf",
    "tm:swift",
    "tm:takedown",
    "tm:terablast",
    "tm:waterfall",
    "tm:waterpulse",
    "tm:whirlpool",
    "tutor:flipturn",
    "tutor:scaleshot"
  ],
  "labels": [
    "gen8"
  ],
  "pokedex": [
    "cobblemon.species.barraskewda.desc"
  ],
  "preEvolution": "arrokuda",
  "evolutions": [],
  "baseScale": 1,
  "hitbox": {
    "width": 1,
    "height": 1,
    "fixed": false
  },
  "baseFriendship": 50,
  "evYield": {
    "hp": 0,
    "attack": 0,
    "defence": 0,
    "special_attack": 0,
    "special_defence": 0,
    "speed": 2
  },
  "height": 13,
  "weight": 300,
  "aspects": [],
  "cannotDynamax": false
}