{
    "enabled": true,
    "neededInstalledMods": [],
    "neededUninstalledMods": [],
    "spawns": [
        {
            "id": "glaceon-1",
            "pokemon": "glaceon",
            "type": "pokemon",
            "context": "grounded",
            "bucket": "ultra-rare",
            "level": "33-52",
            "weight": 0.1,
            "condition": {
                "canSeeSky": true,
                "biomes": [
                    "#cobblemon:is_snowy"
                ]
            }
        }
    ]
}