{
  "implemented": true,
  "name": "Wigglytuff",
  "nationalPokedexNumber": 40,
  "primaryType": "normal",
  "secondaryType": "fairy",
  "abilities": [
    "cutecharm",
    "competitive",
    "h:frisk"
  ],
  "baseStats": {
    "hp": 140,
    "attack": 70,
    "defence": 45,
    "special_attack": 85,
    "special_defence": 50,
    "speed": 45
  },
  "catchRate": 50,
  "maleRatio": 0.25,
  "shoulderMountable": false,
  "baseExperienceYield": 218,
  "experienceGroup": "fast",
  "eggCycles": 10,
  "eggGroups": [
    "fairy"
  ],
  "moves": [
    "1:bodyslam",
    "1:charm",
    "1:copycat",
    "1:covet",
    "1:defensecurl",
    "1:disable",
    "1:disarmingvoice",
    "1:doubleedge",
    "1:doubleslap",
    "1:echoedvoice",
    "1:gyroball",
    "1:hypervoice",
    "1:mimic",
    "1:pound",
    "1:rest",
    "1:round",
    "1:sing",
    "1:spitup",
    "1:stockpile",
    "1:swallow",
    "1:sweetkiss",
    "5:playrough",
    "tm:allyswitch",
    "tm:amnesia",
    "tm:attract",
    "tm:batonpass",
    "tm:blizzard",
    "tm:bodypress",
    "tm:bodyslam",
    "tm:bounce",
    "tm:brickbreak",
    "tm:calmmind",
    "tm:captivate",
    "tm:chargebeam",
    "tm:charm",
    "tm:chillingwater",
    "tm:confide",
    "tm:darkpulse",
    "tm:dazzlinggleam",
    "tm:dig",
    "tm:disarmingvoice",
    "tm:doubleteam",
    "tm:drainingkiss",
    "tm:drainpunch",
    "tm:encore",
    "tm:endure",
    "tm:energyball",
    "tm:facade",
    "tm:faketears",
    "tm:fireblast",
    "tm:firepunch",
    "tm:flamethrower",
    "tm:fling",
    "tm:focusblast",
    "tm:frustration",
    "tm:gigaimpact",
    "tm:grassknot",
    "tm:helpinghand",
    "tm:hiddenpower",
    "tm:hyperbeam",
    "tm:hypervoice",
    "tm:icebeam",
    "tm:icepunch",
    "tm:icespinner",
    "tm:icywind",
    "tm:incinerate",
    "tm:lightscreen",
    "tm:magicalleaf",
    "tm:magicroom",
    "tm:megakick",
    "tm:megapunch",
    "tm:metronome",
    "tm:mistyterrain",
    "tm:nastyplot",
    "tm:naturalgift",
    "tm:playrough",
    "tm:poweruppunch",
    "tm:protect",
    "tm:psychic",
    "tm:psychup",
    "tm:psyshock",
    "tm:raindance",
    "tm:reflect",
    "tm:rest",
    "tm:retaliate",
    "tm:return",
    "tm:safeguard",
    "tm:sandstorm",
    "tm:screech",
    "tm:secretpower",
    "tm:selfdestruct",
    "tm:shadowball",
    "tm:skillswap",
    "tm:sleeptalk",
    "tm:snore",
    "tm:solarbeam",
    "tm:stealthrock",
    "tm:storedpower",
    "tm:substitute",
    "tm:sunnyday",
    "tm:swagger",
    "tm:swift",
    "tm:takedown",
    "tm:taunt",
    "tm:terablast",
    "tm:thief",
    "tm:thunder",
    "tm:thunderbolt",
    "tm:thunderpunch",
    "tm:thunderwave",
    "tm:trailblaze",
    "tm:triattack",
    "tm:uproar",
    "tm:waterpulse",
    "tm:wildcharge",
    "tm:workup",
    "tm:zenheadbutt",
    "tutor:bide",
    "tutor:bubblebeam",
    "tutor:counter",
    "tutor:curse",
    "tutor:detect",
    "tutor:doubleslap",
    "tutor:doubleteam",
    "tutor:dreameater",
    "tutor:dynamicpunch",
    "tutor:endeavor",
    "tutor:expandingforce",
    "tutor:flash",
    "tutor:focuspunch",
    "tutor:frustration",
    "tutor:gravity",
    "tutor:headbutt",
    "tutor:healbell",
    "tutor:hiddenpower",
    "tutor:knockoff",
    "tutor:laserfocus",
    "tutor:lastresort",
    "tutor:magiccoat",
    "tutor:minimize",
    "tutor:mistyexplosion",
    "tutor:mudslap",
    "tutor:nightmare",
    "tutor:painsplit",
    "tutor:psychup",
    "tutor:psywave",
    "tutor:rage",
    "tutor:recycle",
    "tutor:return",
    "tutor:roleplay",
    "tutor:rollout",
    "tutor:seismictoss",
    "tutor:shockwave",
    "tutor:skullbash",
    "tutor:snatch",
    "tutor:steelroller",
    "tutor:strength",
    "tutor:submission",
    "tutor:swagger",
    "tutor:telekinesis",
    "tutor:teleport",
    "tutor:toxic",
    "tutor:triattack",
    "tutor:watergun",
    "tutor:zapcannon"
  ],
  "labels": [
    "gen1"
  ],
  "pokedex": [
    "cobblemon.species.wigglytuff.desc"
  ],
  "preEvolution": "jigglypuff",
  "evolutions": [],
  "baseScale": 1,
  "hitbox": {
    "width": 0.7,
    "height": 1.2,
    "fixed": false
  },
  "baseFriendship": 50,
  "evYield": {
    "hp": 3,
    "attack": 0,
    "defence": 0,
    "special_attack": 0,
    "special_defence": 0,
    "speed": 0
  },
  "height": 10,
  "weight": 120,
  "aspects": [],
  "cannotDynamax": false
}