{
  "name": "Armaldo",
  "nationalPokedexNumber": 348,
  "primaryType": "rock",
  "secondaryType": "bug",
  "abilities": [
    "battlearmor",
    "h:swiftswim"
  ],
  "baseStats": {
    "hp": 75,
    "attack": 125,
    "defence": 100,
    "special_attack": 70,
    "special_defence": 80,
    "speed": 45
  },
  "catchRate": 45,
  "maleRatio": 0.875,
  "shoulderMountable": false,
  "baseExperienceYield": 173,
  "experienceGroup": "erratic",
  "eggCycles": 30,
  "eggGroups": [
    "water_3"
  ],
  "moves": [
    "1:furycutter",
    "1:harden",
    "1:mudsport",
    "1:scratch",
    "1:smackdown",
    "1:watergun",
    "12:metalclaw",
    "16:ancientpower",
    "20:bugbite",
    "24:brine",
    "28:slash",
    "32:crushclaw",
    "36:rockblast",
    "43:protect",
    "48:xscissor",
    "tm:aerialace",
    "tm:attract",
    "tm:bodyslam",
    "tm:brickbreak",
    "tm:brine",
    "tm:brutalswing",
    "tm:bulldoze",
    "tm:captivate",
    "tm:confide",
    "tm:crosspoison",
    "tm:cut",
    "tm:dig",
    "tm:doubleteam",
    "tm:earthpower",
    "tm:earthquake",
    "tm:endure",
    "tm:facade",
    "tm:falseswipe",
    "tm:flashcannon",
    "tm:frustration",
    "tm:gigaimpact",
    "tm:hiddenpower",
    "tm:honeclaws",
    "tm:hyperbeam",
    "tm:irondefense",
    "tm:irontail",
    "tm:liquidation",
    "tm:lowkick",
    "tm:mudshot",
    "tm:naturalgift",
    "tm:protect",
    "tm:rest",
    "tm:return",
    "tm:rockblast",
    "tm:rockpolish",
    "tm:rockslide",
    "tm:rocksmash",
    "tm:rocktomb",
    "tm:round",
    "tm:sandstorm",
    "tm:screech",
    "tm:secretpower",
    "tm:shadowclaw",
    "tm:sleeptalk",
    "tm:snore",
    "tm:stealthrock",
    "tm:stompingtantrum",
    "tm:stoneedge",
    "tm:strength",
    "tm:strugglebug",
    "tm:substitute",
    "tm:sunnyday",
    "tm:superpower",
    "tm:swagger",
    "tm:swordsdance",
    "tm:toxic",
    "tm:xscissor",
    "tutor:aquatail",
    "tutor:block",
    "tutor:doubleedge",
    "tutor:headbutt",
    "tutor:knockoff",
    "tutor:meteorbeam",
    "tutor:mimic",
    "tutor:mudslap",
    "tutor:seismictoss",
    "tutor:stringshot",
    "tutor:waterpulse"
  ],
  "labels": [
    "gen3"
  ],
  "pokedex": [
    "cobblemon.species.armaldo.desc"
  ],
  "preEvolution": "anorith",
  "evolutions": [],
  "baseScale": 1,
  "hitbox": {
    "width": 1,
    "height": 1,
    "fixed": false
  },
  "baseFriendship": 50,
  "evYield": {
    "hp": 0,
    "attack": 2,
    "defence": 0,
    "special_attack": 0,
    "special_defence": 0,
    "speed": 0
  },
  "height": 15,
  "weight": 682,
  "aspects": [],
  "cannotDynamax": false
}