{
  "name": "Beautifly",
  "nationalPokedexNumber": 267,
  "primaryType": "bug",
  "secondaryType": "flying",
  "abilities": [
    "swarm",
    "h:rivalry"
  ],
  "baseStats": {
    "hp": 60,
    "attack": 70,
    "defence": 50,
    "special_attack": 100,
    "special_defence": 50,
    "speed": 65
  },
  "catchRate": 45,
  "maleRatio": 0.5,
  "shoulderMountable": false,
  "baseExperienceYield": 178,
  "experienceGroup": "medium_fast",
  "eggCycles": 15,
  "eggGroups": [
    "bug"
  ],
  "moves": [
    "1:gust",
    "12:absorb",
    "15:stunspore",
    "17:morningsun",
    "20:aircutter",
    "22:megadrain",
    "25:silverwind",
    "27:attract",
    "30:whirlwind",
    "32:gigadrain",
    "35:bugbuzz",
    "37:rage",
    "40:quiverdance",
    "tm:acrobatics",
    "tm:aerialace",
    "tm:attract",
    "tm:captivate",
    "tm:confide",
    "tm:doubleteam",
    "tm:endure",
    "tm:energyball",
    "tm:facade",
    "tm:flash",
    "tm:frustration",
    "tm:gigaimpact",
    "tm:hiddenpower",
    "tm:hyperbeam",
    "tm:infestation",
    "tm:naturalgift",
    "tm:protect",
    "tm:psychic",
    "tm:rest",
    "tm:return",
    "tm:roost",
    "tm:round",
    "tm:safeguard",
    "tm:secretpower",
    "tm:shadowball",
    "tm:sleeptalk",
    "tm:solarbeam",
    "tm:strugglebug",
    "tm:substitute",
    "tm:sunnyday",
    "tm:swagger",
    "tm:thief",
    "tm:toxic",
    "tm:uturn",
    "tm:venoshock",
    "tutor:bugbite",
    "tutor:defog",
    "tutor:doubleedge",
    "tutor:electroweb",
    "tutor:gigadrain",
    "tutor:laserfocus",
    "tutor:mimic",
    "tutor:ominouswind",
    "tutor:signalbeam",
    "tutor:snore",
    "tutor:stringshot",
    "tutor:swift",
    "tutor:tailwind",
    "tutor:twister"
  ],
  "labels": [
    "gen3"
  ],
  "pokedex": [
    "cobblemon.species.beautifly.desc"
  ],
  "preEvolution": "silcoon",
  "evolutions": [],
  "baseScale": 1,
  "hitbox": {
    "width": 1,
    "height": 1,
    "fixed": false
  },
  "baseFriendship": 70,
  "evYield": {
    "hp": 0,
    "attack": 0,
    "defence": 0,
    "special_attack": 3,
    "special_defence": 0,
    "speed": 0
  },
  "height": 10,
  "weight": 284,
  "aspects": [],
  "cannotDynamax": false
}