{
  "name": "Kecleon",
  "nationalPokedexNumber": 352,
  "primaryType": "normal",
  "abilities": [
    "colorchange",
    "h:protean"
  ],
  "baseStats": {
    "hp": 60,
    "attack": 90,
    "defence": 70,
    "special_attack": 60,
    "special_defence": 120,
    "speed": 40
  },
  "catchRate": 200,
  "maleRatio": 0.5,
  "shoulderMountable": false,
  "baseExperienceYield": 154,
  "experienceGroup": "medium_slow",
  "eggCycles": 20,
  "eggGroups": [
    "field"
  ],
  "moves": [
    "1:astonish",
    "1:lick",
    "1:scratch",
    "1:tailwhip",
    "1:thief",
    "4:bind",
    "7:shadowsneak",
    "10:feint",
    "13:furyswipes",
    "16:feintattack",
    "18:psybeam",
    "21:ancientpower",
    "25:slash",
    "30:camouflage",
    "33:shadowclaw",
    "38:screech",
    "42:substitute",
    "46:suckerpunch",
    "50:synchronoise",
    "egg:camouflage",
    "egg:disable",
    "egg:dizzypunch",
    "egg:fakeout",
    "egg:foulplay",
    "egg:magiccoat",
    "egg:nastyplot",
    "egg:poweruppunch",
    "egg:recover",
    "egg:skillswap",
    "egg:snatch",
    "egg:trick",
    "tm:aerialace",
    "tm:attract",
    "tm:blizzard",
    "tm:brickbreak",
    "tm:captivate",
    "tm:chargebeam",
    "tm:confide",
    "tm:cut",
    "tm:dig",
    "tm:doubleteam",
    "tm:endure",
    "tm:facade",
    "tm:fireblast",
    "tm:flamethrower",
    "tm:flash",
    "tm:fling",
    "tm:frustration",
    "tm:grassknot",
    "tm:hiddenpower",
    "tm:honeclaws",
    "tm:icebeam",
    "tm:incinerate",
    "tm:naturalgift",
    "tm:protect",
    "tm:psychup",
    "tm:raindance",
    "tm:rest",
    "tm:retaliate",
    "tm:return",
    "tm:rockslide",
    "tm:rocksmash",
    "tm:rocktomb",
    "tm:round",
    "tm:secretpower",
    "tm:shadowball",
    "tm:shadowclaw",
    "tm:sleeptalk",
    "tm:solarbeam",
    "tm:strength",
    "tm:substitute",
    "tm:sunnyday",
    "tm:swagger",
    "tm:thief",
    "tm:thunder",
    "tm:thunderbolt",
    "tm:thunderwave",
    "tm:toxic",
    "tm:trickroom",
    "tm:workup",
    "tutor:afteryou",
    "tutor:aquatail",
    "tutor:bind",
    "tutor:bodyslam",
    "tutor:counter",
    "tutor:defensecurl",
    "tutor:doubleedge",
    "tutor:drainpunch",
    "tutor:dynamicpunch",
    "tutor:firepunch",
    "tutor:focuspunch",
    "tutor:foulplay",
    "tutor:furycutter",
    "tutor:headbutt",
    "tutor:icepunch",
    "tutor:icywind",
    "tutor:irontail",
    "tutor:knockoff",
    "tutor:lastresort",
    "tutor:lowkick",
    "tutor:magiccoat",
    "tutor:megakick",
    "tutor:megapunch",
    "tutor:metronome",
    "tutor:mimic",
    "tutor:mudslap",
    "tutor:recycle",
    "tutor:reflecttype",
    "tutor:roleplay",
    "tutor:rollout",
    "tutor:seismictoss",
    "tutor:shockwave",
    "tutor:skillswap",
    "tutor:snatch",
    "tutor:snore",
    "tutor:stealthrock",
    "tutor:swift",
    "tutor:thunderpunch",
    "tutor:trick",
    "tutor:waterpulse",
    "tutor:wonderroom"
  ],
  "labels": [
    "gen3"
  ],
  "pokedex": [
    "cobblemon.species.kecleon.desc"
  ],
  "evolutions": [],
  "baseScale": 1,
  "hitbox": {
    "width": 1,
    "height": 1,
    "fixed": false
  },
  "baseFriendship": 70,
  "evYield": {
    "hp": 0,
    "attack": 0,
    "defence": 0,
    "special_attack": 0,
    "special_defence": 1,
    "speed": 0
  },
  "height": 10,
  "weight": 220,
  "aspects": [],
  "cannotDynamax": false
}