{
  "name": "Medicham",
  "nationalPokedexNumber": 308,
  "primaryType": "fighting",
  "secondaryType": "psychic",
  "abilities": [
    "purepower",
    "h:telepathy"
  ],
  "baseStats": {
    "hp": 60,
    "attack": 60,
    "defence": 75,
    "special_attack": 60,
    "special_defence": 75,
    "speed": 80
  },
  "catchRate": 90,
  "maleRatio": 0.5,
  "shoulderMountable": false,
  "forms": [
    {
      "name": "Mega",
      "primaryType": "fighting",
      "secondaryType": "psychic",
      "abilities": [
        "purepower"
      ],
      "baseStats": {
        "hp": 60,
        "attack": 100,
        "defence": 85,
        "special_attack": 80,
        "special_defence": 85,
        "speed": 100
      },
      "catchRate": 90,
      "maleRatio": 0.5,
      "baseExperienceYield": 179,
      "baseFriendship": 70,
      "evYield": {
        "hp": 0,
        "attack": 0,
        "defence": 0,
        "special_attack": 0,
        "special_defence": 0,
        "speed": 2
      },
      "experienceGroup": "medium_fast",
      "eggCycles": 20,
      "eggGroups": [
        "human_like"
      ],
      "moves": [],
      "labels": [
        "gen6",
        "mega"
      ],
      "aspects": [
        "mega"
      ],
      "height": 13,
      "weight": 315,
      "evolutions": [],
      "cannotDynamax": false,
      "battleOnly": true
    }
  ],
  "baseExperienceYield": 144,
  "experienceGroup": "medium_fast",
  "eggCycles": 20,
  "eggGroups": [
    "human_like"
  ],
  "moves": [
    "1:bide",
    "1:confusion",
    "1:detect",
    "1:firepunch",
    "1:icepunch",
    "1:meditate",
    "1:thunderpunch",
    "1:workup",
    "12:endure",
    "15:feint",
    "17:forcepalm",
    "20:hiddenpower",
    "20:psybeam",
    "23:calmmind",
    "25:mindreader",
    "25:zenheadbutt",
    "28:highjumpkick",
    "31:psychup",
    "33:acupressure",
    "36:powertrick",
    "47:recover",
    "53:axekick",
    "53:counter",
    "tm:aerialace",
    "tm:attract",
    "tm:aurasphere",
    "tm:batonpass",
    "tm:bodyslam",
    "tm:brickbreak",
    "tm:bulkup",
    "tm:calmmind",
    "tm:captivate",
    "tm:closecombat",
    "tm:confide",
    "tm:doubleteam",
    "tm:drainpunch",
    "tm:dreameater",
    "tm:endure",
    "tm:energyball",
    "tm:facade",
    "tm:firepunch",
    "tm:flash",
    "tm:fling",
    "tm:focusblast",
    "tm:frustration",
    "tm:gigaimpact",
    "tm:grassknot",
    "tm:helpinghand",
    "tm:hiddenpower",
    "tm:hyperbeam",
    "tm:icepunch",
    "tm:imprison",
    "tm:lightscreen",
    "tm:lowkick",
    "tm:lowsweep",
    "tm:metronome",
    "tm:naturalgift",
    "tm:nightshade",
    "tm:poisonjab",
    "tm:poweruppunch",
    "tm:protect",
    "tm:psybeam",
    "tm:psychic",
    "tm:psychicterrain",
    "tm:psyshock",
    "tm:raindance",
    "tm:reflect",
    "tm:rest",
    "tm:retaliate",
    "tm:return",
    "tm:reversal",
    "tm:rockslide",
    "tm:rocksmash",
    "tm:rocktomb",
    "tm:round",
    "tm:secretpower",
    "tm:shadowball",
    "tm:skillswap",
    "tm:sleeptalk",
    "tm:storedpower",
    "tm:strength",
    "tm:substitute",
    "tm:sunnyday",
    "tm:swagger",
    "tm:swift",
    "tm:takedown",
    "tm:taunt",
    "tm:terablast",
    "tm:thief",
    "tm:thunderpunch",
    "tm:toxic",
    "tm:trailblaze",
    "tm:trick",
    "tm:trickroom",
    "tm:zenheadbutt",
    "tutor:doubleedge",
    "tutor:dynamicpunch",
    "tutor:focuspunch",
    "tutor:gravity",
    "tutor:headbutt",
    "tutor:laserfocus",
    "tutor:magiccoat",
    "tutor:megakick",
    "tutor:megapunch",
    "tutor:mimic",
    "tutor:mudslap",
    "tutor:painsplit",
    "tutor:recycle",
    "tutor:roleplay",
    "tutor:seismictoss",
    "tutor:signalbeam",
    "tutor:snore",
    "tutor:telekinesis",
    "tutor:vacuumwave"
  ],
  "labels": [
    "gen3"
  ],
  "pokedex": [
    "cobblemon.species.medicham.desc"
  ],
  "preEvolution": "meditite",
  "evolutions": [],
  "baseScale": 1,
  "hitbox": {
    "width": 1,
    "height": 1,
    "fixed": false
  },
  "baseFriendship": 70,
  "evYield": {
    "hp": 0,
    "attack": 0,
    "defence": 0,
    "special_attack": 0,
    "special_defence": 0,
    "speed": 2
  },
  "height": 13,
  "weight": 315,
  "aspects": [],
  "cannotDynamax": false
}